[
	{
		"question" : "what does the ring wants" ,
	 	"answer"   : "to be found"
	},
	{
		"question" : "who is Frodo" ,
	 	"answer"   : "Frodo Baggins, son of Drogo Baggins, was a Hobbit of the Shire during the Third Age"
	},
	{
		"question" : "who are the Hobbits" ,
	 	"answer"   : "Hobbits, also known as Halflings, were an ancient mortal race that lived in Middle-earth."
	},
	{
		"question" : "What reveals the writing on the One Ring (according to the movie)?" , 
		"answer"   : "Fire. Gandalf throws the ring in the fire and it reveals the writing."
	}, 
	{
		"question" : "Who was Aragorn" , 
		"answer"   : "Strider. Strider is known as a Ranger; but we later find out he is the heir to the throne of Gondor. He is a descendant of Isildur."
	},
	{
		"question" : "How are Arwen and Galadriel related?" , 
		"answer"   : "Galadriel is Arwen's grandmother . Galadriel is Elrond's mother-in-law"
	}, 
	{
		"question" : "What is the title of Bilbo Baggins' book?" , 
		"answer"   : "There and Back Again:A Hobbit's Tale . Bilbo has gone to Rivendell to write his book."
	}, 
	{
		"question" : "what happens when frodo and sam meet in farmer maggots" , 
		"answer"   : "they get rain into marry and peppin"
	}, 
	{
		"question" : "Who reveals Aragorn's true identity to Boromir at the Council of Elrond?" , 
		"answer"   : "Legolas. In Elvish Legolas means Greenleaf."
	}, 
	{
		"question" : "Who does Frodo offer The Ring to whilst in Bag End?" , 
		"answer"   : "Gandalf. Gandalf refuses The Ring. He says: Through me it would wield a power too great and terrible to imagine."
	}, 
	{
		"question" : "who was isildur" , 
		"answer"   : "son of the king who cuts the ring off Sauron"
	}, 
	{
		"question" : "where did bilbo go to live after abondoning the shire" , 
		"answer"   : "the home of the elves (rivendale)"
	}, 
	{
		"question" : "Who does Aragorn tell not to disturb the water at Moria?" , 
		"answer"   : "Pippin. If he had listened the Fellowship wouldn't have been forced to go through the mines of Moria."
	}, 
	{
		"question" : "what does the eye want saruman to do?" , 
		"answer"   : "make him an army"
	}, 
	{
		"question" : "how many rings were given to the Elves" , 
		"answer"   : "3"
	}, 
	{
		"question" : "who does sam like" , 
		"answer"   : "rosie"
	}, 
	{
		"question" : "Who goes to see Saruman first in this movie?" , 
		"answer"   : "Gandalf. Gandalf was Saruman's friend."
	}, 
	{
		"question" : "How many Ringwraiths come after Frodo in Bree?" , 
		"answer"   : "4. Poor gatekeeper! He was only doing his job!  :)"
	}, 
	{
		"question" : "who fought in Morder for the RING" , 
		"answer"   : "Elves And Men"
	}, 
	{
		"question" : "are the wood-elves leaving middle earth permanently or temporately" , 
		"answer"   : "permanately"
	}, 
	{
		"question" : "How many of the original Fellowship - the group of travellers protecting the Ring - are still alive at the end of the movie?" , 
		"answer"   : "Seven. Boromir and Gandalf have both fallen in battle while protecting the Ring"
	}, 
	{
		"question" : "where does Bilbo and Frodo live" , 
		"answer"   : "in the shire in bag end under THE HILL"
	}, 
	{
		"question" : "What does Saruman's Army consist of?" , 
		"answer"   : "Uruk Hai. Saruman uses a new breed of Orc known as the Uruk Hai. Sauron orders Saruman to build a great Army for him."
	}, 
	{
		"question" : "who is gimli" , 
		"answer"   : "son of gloin (dwarf)"
	}, 
	{
		"question" : "what does frodo and sam see while they were at a forest" , 
		"answer"   : "wood-elves"
	}, 
	{
		"question" : "Which actor played Bilbo Baggins?" , 
		"answer"   : "Ian Holm. Ian Holm was the voice of Frodo Baggins in the classic BBC Radio adaptation of 'Lord of the Rings' in the 1970s"
	}, 
	{
		"question" : "after the birds started to fly by what route did they now have to take" , 
		"answer"   : "the pass of caradhars"
	}, 
	{
		"question" : "Who tells Gandalf he has been labelled as a disturber of the peace?" , 
		"answer"   : "Frodo. People believe Tolkien based the character Gandalf on Merlin from the tales of King Arthur."
	}, 
	{
		"question" : "What is the name of the Dwarf city in Moria?" , 
		"answer"   : "Dwarrowdelf. Before the Dwarves were forced to abandon Moria"
	}, 
	{
		"question" : "what sword did frodo get stabbed by" , 
		"answer"   : "a morgul blade"
	}, 
	{
		"question" : "How far from Buckleberry Ferry is the Brandywine Bridge?" , 
		"answer"   : "20 Miles. 'How far to the nearest crossing?' 'The Brandywine Bridge- 20 miles.'"
	}, 
	{
		"question" : "How long before beginning the on-location filming did the set builders start working on Hobbiton?" , 
		"answer"   : "about a year. Director/Producer/Co-Writer Pete Jackson wanted Hobbiton to look like it had been there for hundreds of years.  The advanced contruction allowed the gardens and landscaping to mature as well as allowing the wooden structures to attain that nice weathered look."
	}, 
	{
		"question" : "why is gandalf afraid of mines of muri" , 
		"answer"   : "because he is afraid of an evil spirit their called the shawdow and flame"
	}, 
	{
		"question" : "What is the name of the Farmer that Merry and Pippin were stealing from?" , 
		"answer"   : "Farmer Maggot. 'You've been into Farmer Maggot's crops!'"
	}, 
	{
		"question" : "Where was Isildur shot?" , 
		"answer"   : "Back. 'The hearts of men are easily corrupted and the ring of power has a will of its own. It betrayed Isildur to his death'"
	}, 
	{
		"question" : "From which direction does Aragorn plan to walk into Mordor?" , 
		"answer"   : "From the North. Aragorn plans to go through the swamps and marshes we see in 'The Two Towers'."
	}, 
	{
		"question" : "What did the people of Bree call Aragorn?" , 
		"answer"   : "Strider. Frodo asks Mr. Butterbur"
	}, 
	{
		"question" : "Why didn't Saruman want the Uruk-Hai to kill the Hobbits (according to the movie)?" , 
		"answer"   : "They carried something of great value. . Saruman tells the Uruk-Hai right when he sends them off to find the Fellowship."
	}, 
	{
		"question" : "What character does Hugo Weaving play?" , 
		"answer"   : "Elrond. Elrond is half-elven"
	}, 
	{
		"question" : "Who kills Saruman in this movie? (Not on the extended version.)" , 
		"answer"   : "Nobody. Saruman does get killed in 'The Return Of The King' book."
	}, 
	{
		"question" : "what does elron think is happening to the men" , 
		"answer"   : "the race is failing"
	}, 
	{
		"question" : "Who does the Fellowship consist of?" , 
		"answer"   : "4 Hobbits"
	}, 
	{
		"question" : "What birthday was Bilbo Baggins celebrating?" , 
		"answer"   : "111. Although Bilbo was turning 111 he doesn't look any older then 50 or 60 years old."
	}, 
	{
		"question" : "Where does Aragorn lead the Hobbits to?" , 
		"answer"   : "Rivendell. Aragorn leads the Hobbits to Rivendell"
	}, 
	{
		"question" : "Who did NOT get a hug off of Frodo after he woke up at Rivendell?" , 
		"answer"   : "Aragorn . Frodo gave his uncle Bilbo a real big hug as he had not seen Bilbo for quite a while."
	}, 
	{
		"question" : "who is boromiar" , 
		"answer"   : "son the acting king"
	}, 
	{
		"question" : "what do hobbits like to do" , 
		"answer"   : "eat"
	}, 
	{
		"question" : "what happened while frodo put on the ring in the wild" , 
		"answer"   : "he got stabbed"
	}, 
	{
		"question" : "What is the name of the place Boromir calls 'The White City'?" , 
		"answer"   : "Minas Tirith. The capital of Boromir's home land of Gondor. Formerly called Minas Anor."
	}, 
	{
		"question" : "What colour handprints do the Uruk Hai have on their face?" , 
		"answer"   : "White. The handprints put on the Uruk Hai are white."
	}, 
	{
		"question" : "how old was bilbo when he found the ring" , 
		"answer"   : "51 YEARS"
	}, 
	{
		"question" : "boromir wants what?" , 
		"answer"   : "he sees the ring and goes crazy for then regrets it"
	}, 
	{
		"question" : "What is Legolas' first line in the movie?" , 
		"answer"   : "This is no mere ranger. Legolas' first line was 'This is no mere ranger...'. He was defending Strider/Aragorn."
	}, 
	{
		"question" : "who is gandalf going to meet" , 
		"answer"   : "saruman the white"
	}, 
	{
		"question" : "Which of these does Saruman NOT use for battle?" , 
		"answer"   : "Dwarves. Saruman does use Men for battle"
	}, 
	{
		"question" : "Which of the fellowship is reluctant to turn back from the mountain of Carhadras?" , 
		"answer"   : "Gandalf. Gandalf is reluctant to turn back and go through Moria because he knows that his possible death awaits him there in the form of a Balrog."
	}, 
	{
		"question" : "what food does hobbits like" , 
		"answer"   : "MUSHROOM"
	}, 
	{
		"question" : "what is the ring-wraith other name" , 
		"answer"   : "nazgul"
	}, 
	{
		"question" : "Who did frodo meet at the prancing pony" , 
		"answer"   : "a wild ranger very dangerous KNOWN AS STRIDER"
	}, 
	{
		"question" : "what happened when they see balrog" , 
		"answer"   : "they all run away"
	}, 
	{
		"question" : "where does frodo and gandalf suppose to meet" , 
		"answer"   : "the inn of the prancing pony in bree"
	}, 
	{
		"question" : "what did gimi found" , 
		"answer"   : "he found that everyone that he love including his king died"
	}, 
	{
		"question" : "how does the door to mines of muri looks like" , 
		"answer"   : "it look like a rock wall until the moon light showed"
	}, 
	{
		"question" : "Which fellowship member does Frodo NOT see in the mirror of Galadriel?" , 
		"answer"   : "Boromir . He sees both Sam and Legolas in the mirror"
	}, 
	{
		"question" : "when the ring- wrath were near what did frodo almost do" , 
		"answer"   : "he almost put on the ring"
	}, 
	{
		"question" : "what does the group hear while on the edge of the caradhars" , 
		"answer"   : "they hear a voice of sarumen then an avalanche that almost felled off but buried"
	}, 
	{
		"question" : "what happened after frodo got stabbed" , 
		"answer"   : "strider attacked the ring-wraith"
	}, 
	{
		"question" : "What species do Orcs originate from?" , 
		"answer"   : "Elves . The name Orc comes from the Roman God of the Underworld"
	}, 
	{
		"question" : "how long did it take for the ring to be found" , 
		"answer"   : "2 and 1/2 thousands years"
	}, 
	{
		"question" : "how many rings was given to the race MEN" , 
		"answer" : "9"
	}, 
	{
		"question" : "why were the ring wrath not death" , 
		"answer"   : "the ring kept them alive"
	}, 
	{
		"question" : "who can beat sauron" , 
		"answer"   : "no one"
	}, 
	{
		"question" : "how old is bilbo baggins" , 
		"answer"   : "111 years olds"
	}, 
	{
		"question" : "It is said that Orcs originated from which other race?" , 
		"answer"   : "Elf. Orcs originated from Elves. However"
	}, 
	{
		"question" : "What bow did Legolas receive from Galadriel?" , 
		"answer"   : "A Galadhrim bow. A Galadhrim bow is longer and wider than a Mirkwood bow. Its string is made out of Elf hair."
	}, 
	{
		"question" : "What did Gandalf call Pippin when he did something stupid?" , 
		"answer"   : "Fool Of A Took. In the Mines of Moria"
	}, 
	{
		"question" : "who is chasing ARWEN" , 
		"answer"   : "ring-wraith"
	}, 
	{
		"question" : "In the beginning of the movie how many Rings are given to the Elves?" , 
		"answer"   : "3 . The word 'elf' comes from the Latin word albus meaning 'white'."
	}, 
	{
		"question" : "why was Sam eavesdropping" , 
		"answer"   : "he 'accidently' heard because he was cutting frodos grass"
	}, 
	{
		"question" : "Which member of the Fellowship can walk on top of the snowbanks?" , 
		"answer"   : "Legolas. Legolas is the coolest!"
	}, 
	{
		"question" : "Which Fellowship member works out the way into the Dwarven Mines?" , 
		"answer"   : "Frodo. Gandalf tries to open the door but has no luck. Frodo is the one who solves the problem of how to get into the Mines."
	}, 
	{
		"question" : "what does saruman do with sauron" , 
		"answer"   : "he joins him"
	}, 
	{
		"question" : "what does saruman want gandalf to do" , 
		"answer"   : "join sauron"
	}, 
	{
		"question" : "why cant they leave the mines of murri" , 
		"answer"   : "the octopus like treasure trapped them in"
	}, 
	{
		"question" : "who is ARWEN" , 
		"answer"   : "Arwen is the daughter of elrond"
	}, 
	{
		"question" : "How many hairs does the Elf Queen give Gimli from her head?" , 
		"answer"   : "3. The Elf Queen gives each of the Fellowship a gift to help them on their way"
	}, 
	{
		"question" : "How many members make up the fellowship in the 'The Fellowship of the Ring'?" , 
		"answer"   : "9. 4 hobbits"
	}, 
	{
		"question" : "who was in the orginal battle with sauron" , 
		"answer"   : "elron"
	}, 
	{
		"question" : "How many candles are there on Bilbo's chandelier?" , 
		"answer"   : "six. You can see them all"
	}, 
	{
		"question" : "Another word for 'hobbit' is:" , 
		"answer"   : "halfling. Hobbits are called 'halflings' many times throughout the movie."
	}, 
	{
		"question" : "who is strider related to" , 
		"answer"   : "islur (great great great great grandson of islur"
	}, 
	{
		"question" : "What is Aragorn also known as?" , 
		"answer"   : "Strider. Strider is known as a Ranger; but we later find out he is the heir to the throne of Gondor. He is a descendant of Isildur."
	}, 
	{
		"question" : "where did saruman put gandalf in prison" , 
		"answer"   : "on top of the tower of isenguard"
	}, 
	{
		"question" : "what was sam punishment" , 
		"answer"   : "to go with frodo"
	}, 
	{
		"question" : "where do they go after frodo is saved" , 
		"answer"   : "to the bridge of khazad-dum"
	}, 
	{
		"question" : "What is the name of Sam's love interest?" , 
		"answer"   : "Rosie. Samwise Gamgee was born in 2980 of the Third Age."
	}, 
	{
		"question" : "What is the name of Saruman's tower?" , 
		"answer"   : "Orthanc Tower. The closest important place to Orthanc Tower is Rohan."
	}, 
	{
		"question" : "How old is Legolas? (Note: Although J.R.R. Tolkien does not specify an age in the books Peter Jackson chose an estimated age he would use for the movies.)" , 
		"answer"   : "2931. Legolas is a little bit older than Arwen"
	}, 
	{
		"question" : "What colour does Frodo's sword turn when Orc's are close by?" , 
		"answer"   : "Blue. It turns a light blue colour. It is a good warning to let the Fellowship know when Orcs are near. You see the sword glow blue twice in the movie."
	}, 
	{
		"question" : "how did isildur die" , 
		"answer"   : "he put on the ring to become invisible when attacked but the ring betrayed him slipped of the river and he was visible"
	}, 
	{
		"question" : "what is frodos goal" , 
		"answer"   : "to hide it from Sauron and its armies of orcs and ring-wrath"
	}, 
	{
		"question" : "Legolas gets to the courtyard second. Who arrives before him?" , 
		"answer"   : "Boromir. While Elrond and Gandalf are talking"
	}, 
	{
		"question" : "Which member of the Fellowship is not setting off to track Merry and Pippin at the end of the movie?" , 
		"answer"   : "Boromir. Boromir is not with the others"
	}, 
	{
		"question" : "How did 'it' begin?" , 
		"answer"   : "With the forging of the Great Rings. Three went to the elves. Immortal; fairest and wisest of all beings."
	}, 
	{
		"question" : "Who solves the riddle that opens the door to the mines of Moria?" , 
		"answer"   : "Frodo. In the book"
	}, 
	{
		"question" : "What country is the actress from who plays Galadriel?" , 
		"answer"   : "Australia. Cate Blanchett plays the Elf Galadriel. Cate Blanchett is an Australian actress."
	}, 
	{
		"question" : "What date does Frodo wake up after being stabbed?" , 
		"answer"   : "October 24th. Frodo is told the date"
	}, 
	{
		"question" : "Where are the Hobbits meant to meet Gandalf?" , 
		"answer"   : "The Prancing Pony. The Prancing Pony is a pub in Bree. Gandalf is not seen when the 4 Hobbits finally get there."
	}, 
	{
		"question" : "what happened after boromir almost touched it" , 
		"answer"   : "gandalf spoked the words on the ring but in moridor so that it show how evil it was"
	}, 
	{
		"question" : "what is strider REAL NAME IS" , 
		"answer"   : "ARAGORN SON OF ARATHORN"
	}, 
	{
		"question" : "What was Frodo doing the first time we see him?" , 
		"answer"   : "reading a book. He stops reading when he hears Gandalf's cart coming."
	}, 
	{
		"question" : "who is legolas" , 
		"answer"   : "an elf fighter"
	}, 
	{
		"question" : "What was Gandalf talking about when he said that its worth was greater than that of the Shire?" , 
		"answer"   : "Mithril shirt."
	}, 
	{
		"question" : "who does bilbo want give the ring to" , 
		"answer"   : "frodo"
	}, 
	{
		"question" : "On what finger was Sauron wearing the ring?" , 
		"answer"   : "index. Most characters in this movie wear their rings on their index finger. In fact"
	}, 
	{
		"question" : "what is the main goal of the master ring" , 
		"answer"   : "to get back to its master"
	}, 
	{
		"question" : "who stole gandalfs fire work" , 
		"answer"   : "Meriadoc Brandy Buck and Peregrin Took (merry and pippim) (guys)"
	}, 
	{
		"question" : "What color is the cloak Legolas was wearing at the Council of Elrond?" , 
		"answer"   : "Brown. At the Council of Elrond"
	}, 
	{
		"question" : "how did the Dark Lord Sauron deceived everyone who got a ring" , 
		"answer"   : "He made a ring that controls the other rings called the Master Ring"
	}, 
	{
		"question" : "What is the huge fiery demon that attacks the fellowship in the Mines of Moria?" , 
		"answer"   : "Balrog. The fellowship also encounter many orcs and a big cave troll"
	}, 
	{
		"question" : "how do you open the door to the door of mines of murri" , 
		"answer"   : "you have to answer the riddle"
	}, 
	{
		"question" : "What color horse was Legolas riding on when he came to Rivendell?" , 
		"answer"   : "white. Legolas is sent from Mirkwood by his father Thranduil to announce Gollum's escape in the Council of Elrond."
	}, 
	{
		"question" : "What did Sam use as an excuse to not dance with Rosie?" , 
		"answer"   : "Getting an ale. At Bilbo's party Frodo tells Sam to dance with Rosie"
	}, 
	{
		"question" : "who was the ring-wraith" , 
		"answer"   : "the half dead half alive MEN"
	}, 
	{
		"question" : "what are the 7 meals called for the hobbit" , 
		"answer"   : "breakfast"
	}, 
	{
		"question" : "Who were the Dwarves" , 
		"answer"   : "great miners and craftsmen of the mountain halls"
	}, 
	{
		"question" : "Who was the first elf to appear in this movie?" , 
		"answer"   : "Galadriel. Galadriel narrates the prologue and is seen receiving one of the rings."
	}, 
	{
		"question" : "What is the very last line said in the introduction?" , 
		"answer"   : "For the time will soon come when hobbits will shape the fortunes of all. This leads into the movie (as introductions tend to do)"
	}, 
	{
		"question" : "what is a palantir" , 
		"answer"   : "a round shape like a crystal ball that if u look at it you can see in future"
	}, 
	{
		"question" : "What is the first line in the movie (in the language spoken)?" , 
		"answer"   : "I amar prestar aen. If you listen carefully"
	}, 
	{
		"question" : "Which Fellowship member tries to take the One Ring from Frodo?" , 
		"answer"   : "Boromir. Boromir wants the One Ring to help protect his city of Gondor from the forces of evil."
	}, 
	{
		"question" : "How does Gandalf punish Pippin and Merry for stealing his firework?" , 
		"answer"   : "makes them clean dishes. Gandalf's fireworks are really awesome!"
	}, 
	{
		"question" : "what does gandalf see when first encounter with bilbo" , 
		"answer"   : "he looks like he didn't age"
	}, 
	{
		"question" : "Chapter 9 is a new scene. What is this chapter called?" , 
		"answer"   : "At the Green Dragon. The last part of this chapter is seen in the original."
	}, 
	{
		"question" : "what were the orcs" , 
		"answer"   : "the orcs were elves until the darkness took them and made them orcs"
	}, 
	{
		"question" : "as everyone who was going to MT doom was on a break on a mountain what did they see" , 
		"answer"   : "they saw birds that were security cameras Isenguard"
	}, 
	{
		"question" : "who strider is in love with" , 
		"answer"   : "daughter of elron"
	}, 
	{
		"question" : "How old was Bilbo turning?" , 
		"answer"   : "111. Bilbo tells his audience in his speech that he is now"
	}, 
	{
		"question" : "what are the characteristics of the hobbit" , 
		"answer"   : "small"
	}, 
	{
		"question" : "how long do elvses live" , 
		"answer"   : "FOREVVVVVEEEEEERRRR"
	}, 
	{
		"question" : "who was about to touch the ring during the counsel of the ring" , 
		"answer"   : "boromir"
	}, 
	{
		"question" : "what is gollum real name" , 
		"answer"   : "smeagol"
	}, 
	{
		"question" : "Who created the One Ring?" , 
		"answer"   : "Sauron. Sauron created the One Ring so he could rule all of Middle Earth. Legend has it"
	}, 
	{
		"question" : "who is gollum" , 
		"answer"   : "a hobbit"
	}, 
	{
		"question" : "What was Frodo doing when he heard Gandalf coming up the road?" , 
		"answer"   : "Reading and chewing on grass. In the beginning"
	}, 
	{
		"question" : "I celebrated my 111th birthday. Who played me?" , 
		"answer"   : "Ian Holm. Holm played Bilbo Baggins in this movie. Bilbo got the ring after Gollum had lost it. He was Frodo's uncle. At his birthday party celebration"
	}, 
	{
		"question" : "Who dies whilst the Fellowship battle the Uruk-hai at Amon Hen?" , 
		"answer"   : "Boromir. Amon Hen means 'the hill of the eye' and is one of three peaks at the end of the River Anduin."
	}, 
	{
		"question" : "how did gandalf get out of the tower" , 
		"answer"   : "he got off when his saruan attacked him then he jumped off then an giant eagle caught him then swooped him away"
	}, 
	{
		"question" : "What does Bilbo compare himself to when he tells Gandalf why he is leaving the Shire?" , 
		"answer"   : "butter. Bilbo says he feels like 'butter that has been scraped over too much bread."
	}, 
	{
		"question" : "where is the one RING made" , 
		"answer"   : "in Morder in the fires of MT Doom"
	}, 
	{
		"question" : "How many sails does Gandalf's smoke-ship have?" , 
		"answer"   : "three. Bilbo Baggins is very proud of his smoke rings"
	}, 
	{
		"question" : "Who is the first member of the fellowship to jump across the gap in the staircase in Moria?" , 
		"answer"   : "Legolas. Orlando Bloom is very cute. He does an excellent job as the only elf in the fellowship."
	}, 
	{
		"question" : "what happened after he got the ring on at the prancing pony" , 
		"answer"   : "he is in a spirit world and now the ring-wraith can find him"
	}, 
	{
		"question" : "what does bilbo give frodo for protection" , 
		"answer"   : "a sword made by elves that glows blue when orcs are around"
	}, 
	{
		"question" : "How many arrows did Legolas fire at the Moria cave troll?" , 
		"answer"   : "5. At one time Legolas fires two arrows at once!"
	}, 
	{
		"question" : "Who took and kept the One Ring after it was lost for so long?" , 
		"answer"   : "Gollum/Smeagol. Gollum found the One Ring and was given unnatural life. Gollum was corrupted by the One Ring."
	}, 
	{
		"question" : "who finds the ring after gollum lost it" , 
		"answer"   : "Billbo Baggins"
	}, 
	{
		"question" : "The Fellowship has to hide from a flock of birds spying for Saruman. What kind of birds does Legolas identify them as?" , 
		"answer"   : "Crebain. Crebain are a type of large crow associated with the forces of darkness."
	}, 
	{
		"question" : "Who gave Frodo the chain shirt mithril?" , 
		"answer"   : "Bilbo. Bilbo gave Frodo the mithril and the sword 'Sting' before Frodo and the Fellowship set out on their quest to Mount Doom."
	}, 
	{
		"question" : "Sauron tells Saruman to build him an army worthy of what?" , 
		"answer"   : "Mordor. It is a little hard to hear what Sauron is saying sometimes."
	}, 
	{
		"question" : "What is the name of Aragorn's father?" , 
		"answer"   : "Arathorn. As a Dunedain Lord Aragorn is blessed with a lifespan three times that of other Men."
	}, 
	{
		"question" : "Isildur is shown after being killed during the introduction. How many arrows are sticking out of his back?" , 
		"answer"   : "three. There is somewhat of a mistake during this part on the movie"
	}, 
	{
		"question" : "what did borimor think of strider until he was told he was aragon" , 
		"answer"   : "he thought he was worthless"
	}, 
	{
		"question" : "are the ring-wraith scared of the elves" , 
		"answer"   : "a little bit unless the elves are at their home"
	}, 
	{
		"question" : "What name does Frodo use in Bree?" , 
		"answer"   : "Underhill. Because Gandalf warns him that the name 'Baggins' is dangerous"
	}, 
	{
		"question" : "What did Sam use in Moria to fight off the Orcs?" , 
		"answer"   : "Frying pan. He comments here on how he's starting to get the hang of fighting with the pan!"
	}, 
	{
		"question" : "Who did Frodo ride with to Rivendell?" , 
		"answer"   : "Arwen. Arwen is an Elf from Rivendell. She had been looking for Aragorn and the Hobbits for a couple of days. Frodo is stabbed and can only be healed by Elrond. The Ringwraiths are on her tail the whole way there."
	}, 
	{
		"question" : "What was the image after the Kings?" , 
		"answer"   : "a map of Middle Earth. For within these rings was the strength and will to govern each race"
	}, 
	{
		"question" : "how many arrows was boromir was shot with" , 
		"answer"   : "3"
	}, 
	{
		"question" : "Who heals Frodo?" , 
		"answer"   : "Elrond. Frodo is healed by Elrond. Elrond is an Elf who lives in Rivendell. Elrond is the father of Arwen."
	}, 
	{
		"question" : "How long was the ring lost?" , 
		"answer"   : "2500 years. 'History became legend'"
	}, 
	{
		"question" : "what happen during the night when strider was out hunting" , 
		"answer"   : "the hobbits except for frodo made a fire a seen by the ring-wraith"
	}, 
	{
		"question" : "as the ring-wraith were chasing ARWEN what happened when they stopped at a river that enters the edge of rivendell" , 
		"answer"   : "the ring-wraith tries to attack and ARWIN uses magic to create a flood a water horses running and get washed away"
	}, 
	{
		"question" : "how did aragon kill Uruk-hai" , 
		"answer"   : "when Uruk-hai throws a sword at aragon but blocks it then stabbed it then cuts off his arm thenUruk-hai died"
	}, 
	{
		"question" : "what animal does gandalf talk to in of isanguard" , 
		"answer"   : "a moth"
	}, 
	{
		"question" : "I was the Lord of Rivendell and Arwen's father. Who played me?" , 
		"answer"   : "Hugo Weaving. Weaving"
	}, 
	{
		"question" : "where did the orcs tortured gollum" , 
		"answer"   : "the fortress at barad-dur in mordor"
	}, 
	{
		"question" : "how many rings were given to the Dwarf-Lords" , 
		"answer"   : "7"
	}, 
	{
		"question" : "where is the strider taking them" , 
		"answer"   : "rivendell"
	}, 
	{
		"question" : "Where do the Lady Galadriel and Lord Celeborn live?" , 
		"answer"   : "Lothlorien. Galadriel is also a ringbearer. She bears the ring Nenya - the ring of Adamant."
	}, 
	{
		"question" : "Which character (who has a role in the book) does Bilbo greet early at his party?" , 
		"answer"   : "Fatty Bolger. If you listen carefully"
	}, 
	{
		"question" : "what gifts did lady of light give" , 
		"answer"   : "frodo.light of earendil and cloack of invisiibility legosus. a bow Aragon.nothing gimli. her hair boromir. marry and peppit. a daggers sam. elven rope and cloack of invisiibility"
	}, 
	{
		"question" : "what happen when the orcs come in and break the door" , 
		"answer"   : "everyone attacked until a cave troll starts attacking and it is huge"
	}, 
	{
		"question" : "where the did the Elves And Men fought in Morder" , 
		"answer"   : "in the slopes of MT Doom"
	}, 
	{
		"question" : "when they opened the mines of murri door what did they automatically notice" , 
		"answer"   : "it was a tomb"
	}, 
	{
		"question" : "I was the protoganist in this movie and decided that I would take the ring to Mordor in order to cast it into the fires of Mount Doom. Sam accompanied me on the way when I decided to embark on my journey alone. Who played me?" , 
		"answer"   : "Elijah Wood. Wood took on the role of Frodo Baggins for the entire 'The Lord of the Rings' trilogy. Frodo was first seen reading a book in his home of The Shire"
	}, 
	{
		"question" : "where did Gollum take the ring to" , 
		"answer"   : "Misty Mountains"
	}, 
	{
		"question" : "who did the ARWEN take frodo to" , 
		"answer"   : "elrond"
	}, 
	{
		"question" : "how do you the markings to show up on the master ring" , 
		"answer"   : "u have to put it in any fire."
	}, 
	{
		"question" : "What does Sauron send for something he needs?" , 
		"answer"   : "Ringwraiths (Dark Riders). Ringwraiths were once the nine men who were given a ring each. Sauron sends them to find the ring."
	}, 
	{
		"question" : "in the fight between saruman and gandalf who wons" , 
		"answer"   : "saruman beats gandalf because saruman is a white and gandalf is a gray"
	}, 
	{
		"question" : "who is trying to take bilbos house" , 
		"answer"   : "sackvilles bagginses"
	}, 
	{
		"question" : "what does the orcs make" , 
		"answer"   : "weapon"
	}, 
	{
		"question" : "who is sam" , 
		"answer"   : "frodos best friend and gardener"
	}, 
	{
		"question" : "What is the name of the inn the hobbits expect to meet Gandalf at in the village of Bree?" , 
		"answer"   : "The Prancing Pony. Bree is the main village of Breeland. The other villages are Combe"
	}, 
	{
		"question" : "what does gandalf see when he looked at the ring" , 
		"answer"   : "the great eye of sauron"
	}, 
	{
		"question" : "who is the leader of rivendell" , 
		"answer"   : "elrond"
	}, 
	{
		"question" : "who killed theUruk-hai" , 
		"answer"   : "aragon"
	}, 
	{
		"question" : "How is Boromir killed?" , 
		"answer"   : "Arrows. Boromir takes 3 arrows from the leader of the Uruk Hai before dying in Aragorn's arms."
	}, 
	{
		"question" : "what happens when frodo slips at prancing pony" , 
		"answer"   : "the ring landed perfectly on his finger"
	}, 
	{
		"question" : "is strider in love with ARWEN" , 
		"answer"   : "yes!!!!!!!!!"
	}, 
	{
		"question" : "Who sneaks up on Strider when he is looking for Kingsfoil and puts a sword to his throat?" , 
		"answer"   : "Arwen. Arwen says"
	}, 
	{
		"question" : "Frodo Baggins leaves the Shire on a quest to destroy the One Ring. What is the name of the first place he goes to?" , 
		"answer"   : "Bree. Frodo is told by Gandalf to meet him at the Prancing Pony in Bree. Frodo is accompanied by Sam"
	}, 
	{
		"question" : "How many people made up the fellowship?" , 
		"answer"   : "Nine. They were called the Nine Walkers"
	}, 
	{
		"question" : "what did the words on the rings say" , 
		"answer"   : "one ring to rule them all"
	}, 
	{
		"question" : "What were Gandalf the Grey's last words?" , 
		"answer"   : "fly you fools. Gandalf faced the demon on the bridge of Khazad-Dm"
	}, 
	{
		"question" : "To which mountains did Gollum take the Ring?" , 
		"answer"   : "Misty Mountains. He keeps it there with him for 500 years!"
	}, 
	{
		"question" : "Who gave Frodo a kiss while he was in Lothlorien?" , 
		"answer"   : "Galadriel. 'Farewell'"
	}, 
	{
		"question" : "what is mens weakness" , 
		"answer"   : "their desire for power above all else"
	}, 
	{
		"question" : "What is the name of the Uruk-hai who killed Boromir?" , 
		"answer"   : "Lurtz. The name was invented for the movie."
	}, 
	{
		"question" : "why do kids hobbit like gandalf than regular hobbits" , 
		"answer"   : "because he brings fire works and hobbits don't like it when its not peace and quiet"
	}, 
	{
		"question" : "how many meals do hobbits have" , 
		"answer"   : "7"
	}, 
	{
		"question" : "what is the name of the elf that snuck up on to strider" , 
		"answer"   : "ARWEN"
	}, 
	{
		"question" : "How many members of the fellowship were NOT summoned to the secret meeting?" , 
		"answer"   : "Three. Merry"
	}, 
	{
		"question" : "so when frodo went to prancing pony inn what name did frodo give when they ask what his name way" , 
		"answer"   : "Mr.Underhill"
	}, 
	{
		"question" : "How old is Bilbo?" , 
		"answer"   : "111. 'Today is my 111th birthday!'"
	}, 
	{
		"question" : "what happened tothe ring-wraith" , 
		"answer"   : "they were high mens but corrupted when they took sauron ring now they are slaves"
	}, 
	{
		"question" : "when frodo looks at the elves mirror what does he see" , 
		"answer"   : "he sees that the shire is being destroyed and everyone at the shire chained up and if the rings get stolen then that would happen and someone in his group wants the ring"
	}, 
	{
		"question" : "as frodo wakes up what does he see" , 
		"answer"   : "he wakes up in a new bed and sees gandalf sitting there watching him"
	}, 
	{
		"question" : "What was the name of the only elf in the Fellowship?" , 
		"answer"   : "Legolas Greenleaf. Legolas (or Greenleaf) is a wood elf from Mirkwood. In the movie"
	}, 
	{
		"question" : "Where does Gandalf go to meet Saruman?" , 
		"answer"   : "Isengard. Gandalf goes to meet Saruman at Isengard to tell him about the finding of the One Ring. Gandalf finds out that Saruman now works for Sauron."
	}, 
	{
		"question" : "Boromir referred to Aragorn as all but which?" , 
		"answer"   : "My Leader. When Boromir was wounded after fighting valiantly against the opposing army"
	}, 
	{
		"question" : "What is Galadriel's husband's name?" , 
		"answer"   : "Celeborn. They are the Arwen's Grandparents"
	}, 
	{
		"question" : "why didn't isildur throw the ring in MT Doom" , 
		"answer"   : "Because men has desire for power and is easily corrupted"
	}, 
	{
		"question" : "where does frodo goes first" , 
		"answer"   : "a citys for the mens called the village of bree"
	}, 
	{
		"question" : "Who or what is pursuing Arwen and Frodo on their flight on horseback to Rivendell?" , 
		"answer"   : "Ringwraiths. Which do you like better...wraiths on horseback from 'FOTR' or wraiths on wings from 'TTT'?"
	}, 
	{
		"question" : "How many layers does Frodo wear BEFORE he reached Rivendell?" , 
		"answer"   : "four. After Frodo leaves Rivendell"
	}, 
	{
		"question" : "how did they leave the shire" , 
		"answer"   : "buckleberry ferry"
	}, 
	{
		"question" : "when they explore deeper into the mine what did they see" , 
		"answer"   : "that it was very deep and dangerout"
	}, 
	{
		"question" : "how did Sauron get defeated" , 
		"answer"   : "when isildur cuts his fingers with the rings off of him with the sword"
	}, 
	{
		"question" : "what attacked when they were in the mines of murri" , 
		"answer"   : "an octopus like creature"
	}, 
	{
		"question" : "How long did the ring poison Gollum's mind?" , 
		"answer"   : "500 years. 'The Ring brought to Gollum unnatural long life. For five hundred years it poisoned his mind. And in the gloom of Gollum's cave... it waited.'"
	}, 
	{
		"question" : "What is the name of the eagle that rescues Gandalf from imprisonment by Saruman?" , 
		"answer"   : "Gwaihir. Gwaihir is a Lord amongst eagles."
	}, 
	{
		"question" : "What were Aragorn's first words in the whole series?" , 
		"answer"   : "You draw far too much attention to yourself 'Mr. Underhill!' . He said this right after Frodo had taken off the ring. This was the first time the ring had been worn by Frodo. It took place at the Inn of the Prancing Pony in the village of Bree."
	}, 
	{
		"question" : "did frodo meet gandalf at the prancing pony" , 
		"answer"   : "NO GANDALF WAS ATTACKED BY saruman THE WHITE"
	}, 
	{
		"question" : "What shape did Gandalf make with the smoke from his pipe?" , 
		"answer"   : "A Ship. This scene was shown right before Bilbo's birthday party. Bilbo made a ring of smoke. Gandalf made a ship to fly through Bilbo's ring."
	}, 
	{
		"question" : "What species was Gollum most closely related to before centuries of mutation from owning the ring?" , 
		"answer"   : "Hobbit. Originally called Smeagol"
	}, 
	{
		"question" : "how long did biblo have the ring" , 
		"answer"   : "60 years"
	}, 
	{
		"question" : "Which mines do the Fellowship go through?" , 
		"answer"   : "Moria. Whilst in Moria Gandalf battles with the Balrog on the bridge of Khazad-dum."
	}, 
	{
		"question" : "who teaches the hobbits to fight" , 
		"answer"   : "borimor"
	}, 
	{
		"question" : "how saruma get fuel" , 
		"answer"   : "by cutting down trees that made the tree beared mad"
	}, 
	{
		"question" : "Who accidently knocks the skeleton down the well in Moria?" , 
		"answer"   : "Pippin . In the book"
	}, 
	{
		"question" : "who is gandalf the GREY" , 
		"answer"   : "A WISE AND POWERFUL WIZARD"
	}, 
	{
		"question" : "What Dwarven Mines do the Fellowship travel through?" , 
		"answer"   : "Moria. The name of the Dwarven Mines they travel through is Moria. Gimli looks forward to showing off the skill of the dwarves. What they find"
	}, 
	{
		"question" : "why must frodo leave" , 
		"answer"   : "because the ring-wrath are coming to where he lives"
	}, 
	{
		"question" : "What colour of horse was pulling Gandalf's cart?" , 
		"answer"   : "brown"
	}, 
	{
		"question" : "What fireworks do Pippin and Merry take from Gandalf?" , 
		"answer"   : "Dragon. They start the Dragon off in a tent. It explodes taking the tent with it. After this"
	}, 
	{
		"question" : "Where was the writing on the ring from?" , 
		"answer"   : "Mordor. The One Ring was created in Mordor. Therefore"
	}, 
	{
		"question" : "what were marry and peppin doing at the farmer maggots" , 
		"answer"   : "stealing carrots and cabbage"
	}, 
	{
		"question" : "what is lembas" , 
		"answer"   : "it is a bread that if you eat a little bit you feel like you ate a full meal"
	}, 
	{
		"question" : "as frodo was dying what happened next" , 
		"answer"   : "ARWIN takes him to her father who gives him elf medicene then gives him special care and is asleep in a bed in rivendell"
	}, 
	{
		"question" : "What is the name of Sam's pony?" , 
		"answer"   : "Bill. Poor Sam becomes very attached to Bill"
	}, 
	{
		"question" : "At the end of the film which two members of the Fellowship set off to complete the quest alone?" , 
		"answer"   : "Frodo and Sam. In the second film 'The Two Towers'"
	}, 
	{
		"question" : "who is borimor afraid of" , 
		"answer"   : "ARAGON"
	}, 
	{
		"question" : "How many Ringwraiths attack the Hobbits in the Weathertop?" , 
		"answer"   : "5. In total there are 9 Ringwraiths (the 9 men who received the Great Rings). But only 5 attack the Hobbits in the Weathertop."
	}, 
	{
		"question" : "What is the name of the sword given to Frodo?" , 
		"answer"   : "Sting. Sting glows blue when Orcs are close."
	}, 
	{
		"question" : "What shape does Gandalf create out of smoke when he's smoking with Bilbo?" , 
		"answer"   : "a boat. His boat sails right through Bilbo's ring."
	}, 
	{
		"question" : "Who did Dominic Monaghan play the part of?" , 
		"answer"   : "Merry Brandybuck. Merry and Pippin always came as a pair thoughout the film. You never see one without the other."
	}, 
	{
		"question" : "What color are the eyes of the actor who plays Legolas?" , 
		"answer"   : "Brown. Orlando Bloom's eyes are brown. He had to wear blue contacts"
	}, 
	{
		"question" : "What is the first new scene chronologically in the extended edition?" , 
		"answer"   : "Concerning Hobbits. Also the title of a song on 'The Lord of the Rings Soundtrack'"
	}, 
	{
		"question" : "what is the name of bilbos book" , 
		"answer"   : "there and back again a hobbits tale'"
	}, 
	{
		"question" : "when strider was looking for kingsoil what did he come upon on" , 
		"answer"   : "a magical elf snuck up on him (very hard to do)"
	}, 
	{
		"question" : "who is the lady of light" , 
		"answer"   : "lord of the tree elves galadriel"
	}, 
	{
		"question" : "This question is for those of you who have also read the book. Which fairly important character who the Hobbits meet before they go to Bree is left entirely out of the movie?" , 
		"answer"   : "Tom Bombadil. Tom Bombadil"
	}, 
	{
		"question" : "What are the Nazgul better known as?" , 
		"answer"   : "Ringwraiths. The Nazgul were once powerful kings of men each given a Ring of Power by Sauron."
	}, 
	{
		"question" : "What part of the sword that slew the Dark Lord was broken?" , 
		"answer"   : "Blade. 'It was in that moment when Isildur'"
	}, 
	{
		"question" : "who was taken away" , 
		"answer"   : "marry and pippet"
	}, 
	{
		"question" : "what was the word that opened the door to the mines of muri" , 
		"answer"   : "the elvish word for friend 'murri'"
	}, 
	{
		"question" : "Which of these is not a name for the plant that Aragorn and Sam search for to apply to Frodo's wound?" , 
		"answer"   : "Ithryn. Ithryn is the Sindarin Elvish name for the Istari or Wizards."
	}, 
	{
		"question" : "What colour is Galadriel wearing when she greets the Fellowship in Lothlorien?" , 
		"answer"   : "white. Galadriel is in white"
	}, 
	{
		"question" : "What color are Frodo's eyes when he is crossing over into being a ring-wraith?" , 
		"answer"   : "Blue. You get a close up on his eyes when he is"
	}, 
	{
		"question" : "My character was a hobbit. Gandalf told me to stand by Frodo's side at all times. This was what I told Frodo when I informed him I would go to Mordor with him. Who played me?" , 
		"answer"   : "Sean Astin. Astin"
	}, 
	{
		"question" : "in the pass of caradhars what happened when frodo fell in the snow" , 
		"answer"   : "the ring fell off and borimor picked it and and was tempted a bit in the ring"
	}, 
	{
		"question" : "what does gollum call the ring" , 
		"answer"   : "MY PRECIOUS"
	}, 
	{
		"question" : "Whose crop had Pippin and Merry been into?" , 
		"answer"   : "Farmer Maggot. Farmer Maggot chases the Hobbits"
	}, 
	{
		"question" : "what did the hobbits did when the ring-wraith came" , 
		"answer"   : "frodo put on the rings hoping he cant be seen but made the ring-wraith see better"
	}, 
	{
		"question" : "what medicine does he need to be healed for his wound" , 
		"answer"   : "an elvish medicine"
	}, 
	{
		"question" : "How long has Gollum been following the Fellowship as they reach Moria?" , 
		"answer"   : "3 days. He is seeking the Ring for himself. He believes they are thieves He has yet an even greater part to play which no-one is aware of yet."
	}, 
	{
		"question" : "what does saruman need for his army" , 
		"answer"   : "fuel"
	}, 
	{
		"question" : "I was a wizard who turned on Gandalf and submitted to the will of Sauron. I built an army for Mordor. Who played me?" , 
		"answer"   : "Christopher Lee. Lee"
	}, 
	{
		"question" : "Where is Boromir from?" , 
		"answer"   : "Gondor. Boromir is a Human from Gondor. He carries with him the Horn of Gondor. Boromir is played by Sean Bean."
	}, 
	{
		"question" : "what is the name of the pony that Sam owns" , 
		"answer"   : "bill"
	}, 
	{
		"question" : "who does gandalf thinks is the only man that could take the throne in Gondor" , 
		"answer"   : "STRIDER THE GREAT"
	}, 
	{
		"question" : "What is the name of Bilbo's and Frodo's hobbit hole?" , 
		"answer"   : "Bag End. 'He's left you Bag End.'"
	}, 
	{
		"question" : "What does Pippin drop down the well in the mines of Moria?" , 
		"answer"   : "A Skeleton"
	}, 
	{
		"question" : "Who received the Great Rings?" , 
		"answer"   : "3 Elves"
	}, 
	{
		"question" : "What colour of wax does Gandalf use to seal the envelope containing the ring?" , 
		"answer"   : "red. You can see the wax seal every time you see the back of the envelope."
	}, 
	{
		"question" : "What do the hobbit children know Gandalf best for?" , 
		"answer"   : "Fireworks. This is shown when the hobbit children chase after Gandalf"
	}, 
	{
		"question" : "who was eavesdropping when gandalf and frodo were talking" , 
		"answer"   : "Samwise gamgee"
	}, 
	{
		"question" : "where do they go after gandalf died" , 
		"answer"   : "they are meeting with he tree elves to fight the orcs"
	}, 
	{
		"question" : "after they get buried by snow where do they need they go now" , 
		"answer"   : "the mines of muri"
	}, 
	{
		"question" : "what does ARWIN give to strider" , 
		"answer"   : "a necklace that makes her immortal so that when she takes it off she is mortal"
	}, 
	{
		"question" : "Who was the first hobbit to appear in this movie?" , 
		"answer"   : "Bilbo. Bilbo was first seen in the prologue. He was finding the ring in Gollum's cave."
	}, 
	{
		"question" : "What colour is Bilbo's door?" , 
		"answer"   : "green. Alot of the outside of bilbo's house appears to be green"
	}, 
	{
		"question" : "how did the eagle know to catch gandolf and take him to rivendell" , 
		"answer"   : "the moth told him because gandalf told the moth."
	}, 
	{
		"question" : "who is bilbo Baggins" , 
		"answer"   : "a hobbit from the shire and Frodos uncle"
	}, 
	{
		"question" : "why did the org torture gollum" , 
		"answer"   : "to tell where the ring was"
	}, 
	{
		"question" : "where did strider and the hobbits stayed for the nights in the wild" , 
		"answer"   : "Amon Sul (a watch tower)"
	}, 
	{
		"question" : "what did frodo see when they explore deeper into the mines of murri" , 
		"answer"   : "he saw GOLLUM"
	}, 
	{
		"question" : "why should frodo never put on the ring" , 
		"answer"   : "because if does then the ring-wrath will draw to its power"
	}, 
	{
		"question" : "who went to the shire for the ring" , 
		"answer"   : "the ring-wraith"
	}, 
	{
		"question" : "when frodo was going to morder what happen" , 
		"answer"   : "sam wanted to come and tried to swim to him but then almost drowned"
	}, 
	{
		"question" : "who found the RING" , 
		"answer"   : "Gollum friend"
	}, 
	{
		"question" : "What fell to the power of the ring?" , 
		"answer"   : "free lands of Middle-Earth."
	}, 
	{
		"question" : "when the cave troll attacked what happened" , 
		"answer"   : "frodo gets attacked and gets stabbed but peppet choked it to death"
	}, 
	{
		"question" : "what does ARWIN say to strider because she is in love with him" , 
		"answer"   : "she said she will become mortal and die with him then immortal and spend the rest alone"
	}, 
	{
		"question" : "What is Pippin's last name?" , 
		"answer"   : "Took. Pippin is played by Billy Boyd."
	}, 
	{
		"question" : "What is the name of the tower Saruman the White lives in?" , 
		"answer"   : "Orthanc. In literature a tower signifies power and wealth. They suggest a limitless view."
	}, 
	{
		"question" : "The Fellowship discover which Dwarf's tomb in Moria?" , 
		"answer"   : "Balin. Gimli is the dwarf in the Fellowship. Gloin was his father. Thorin was the dwarf leader who Bilbo Baggins had his adventures with in 'The Hobbit'."
	}, 
	{
		"question" : "why did bilbo get the ring" , 
		"answer"   : "it was fate for him to find it so that he will it to frodo"
	}, 
	{
		"question" : "Which member of the fellowship falls in love (or becomes greatly enchanted) with the lady Galadriel? (This only happens in the extended edition.)" , 
		"answer"   : "Gimli. This is unusual"
	}, 
	{
		"question" : "What is Arwen wearing the first time Frodo sees her?" , 
		"answer"   : "a dress. He sees her in a vision first"
	}, 
	{
		"question" : "My character was the eldest son of the last ruling Steward of Gondor. Who played me?" , 
		"answer"   : "Sean Bean. Bean"
	}, 
	{
		"question" : "did frodo die" , 
		"answer"   : "nope because his armor saved his life"
	}, 
	{
		"question" : "what does bilbo do at the party" , 
		"answer"   : "he makes a speech then puts on the ring to DISSAPEAR"
	}, 
	{
		"question" : "How old is Bilbo Baggins on his birthday celebrated in the first movie?" , 
		"answer"   : "111. The party is for his 'eleventy-first' birthday prior to him leaving The Shire."
	}, 
	{
		"question" : "I was Sam's girlfriend. Who played me?" , 
		"answer"   : "Sarah McLeod. McLeod"
	}, 
	{
		"question" : "WHO DOES FRODO SEE WHEN HE GOES OUTSIDE HIS ROOM IN RIVENDELL" , 
		"answer"   : "for one he saw his hobbits friend then he saw BILBO BAGGINS"
	}, 
	{
		"question" : "Who does Frodo first see in the mirror when talking with Galadriel?" , 
		"answer"   : "Legolas. He sees Legolas first in the mirror (it is really water). The mirror shows what will happen in the future"
	}, 
	{
		"question" : "where is the ring after isildur loses it" , 
		"answer"   : "in the bottom of the river"
	}, 
	{
		"question" : "what happens when marry and pippin sees the orcs and frodo" , 
		"answer"   : "they star to run away so the orcs can chase them and let frodo run and then Aragon boromir and themsleves fought against them"
	}, 
	{
		"question" : "where does he put the ring when gandalf given to frodo" , 
		"answer"   : "an envolope"
	}, 
	{
		"question" : "why doesn't the hobbit get affected by the rings as much as everyone else" , 
		"answer"   : "because the hobbits are innocent"
	}, 
	{
		"question" : "what was the shape of the stolen firework" , 
		"answer"   : "a dragon"
	}, 
	{
		"question" : "how long does Gollum have the ring" , 
		"answer"   : "500 years"
	}, 
	{
		"question" : "who endud up dying" , 
		"answer"   : "boromir"
	}, 
	{
		"question" : "who killed boromir" , 
		"answer"   : "Uruk-hai"
	}, 
	{
		"question" : "what happen if frodo gave her the ring" , 
		"answer"   : "she became crazy and said she passed the test"
	}, 
	{
		"question" : "how did saruman create the new bread of the new fighter army" , 
		"answer"   : "he crossed bread with orcs and goblin-men"
	}, 
	{
		"question" : "How many hobbit children gathered on the road and asked Gandalf for fireworks?" , 
		"answer"   : "seven. You can find the answer"
	}, 
	{
		"question" : "who goes with frodo on the quest" , 
		"answer"   : "legolas"
	}, 
	{
		"question" : "where does gandalf go to" , 
		"answer"   : "isengard"
	}, 
	{
		"question" : "where did frodo hide the ring" , 
		"answer"   : "in his wooden chest"
	}, 
	{
		"question" : "when frodo see bilbo baggins what does he immediately see about him" , 
		"answer"   : "he has aged because he doesn't have the ring."
	}, 
	{
		"question" : "At the start of the movie who is the first person we hear speaking?" , 
		"answer"   : "Galadriel. We hear her talking in her language and then we hear it translated."
	}, 
	{
		"question" : "why does elron think men are weak" , 
		"answer"   : "because when islur had a chance to destroy the ring but he got tempted and walked away"
	}, 
	{
		"question" : "who created the Master Ring" , 
		"answer"   : "The Dark Lord Sauron"
	}, 
	{
		"question" : "what is two power of the ring" , 
		"answer"   : "invisibility and long life"
	}, 
	{
		"question" : "what are the wood-elves doing" , 
		"answer"   : "they are leaving middle-earth and going to harbors beyond the white towers to go to gray havens"
	}, 
	{
		"question" : "What character does John Rhys-Davies play?" , 
		"answer"   : "Gimli. The dwarf who became good friends with Legolas. Normally Dwarves and Elves can't stand each other. I also found out that this particular actor was in 'Indiana Jones and the Last Crusade'"
	}, 
	{
		"question" : "Who finally kills the Cave Troll?" , 
		"answer"   : "Legolas. After a long struggle"
	}, 
	{
		"question" : "how did aragon convinced to be king" , 
		"answer"   : "when boromir have doubt in men and aragon dont want that to happen and the only way to stop it is to become king"
	}, 
	{
		"question" : "what happens when frodo sam marry and peppin were picking up mushroom" , 
		"answer"   : "they ran into ring-wraith and hid"
	}, 
	{
		"question" : "what happens after his party" , 
		"answer"   : "he is now obsessed with the ring and hard for him to let it go"
	}, 
	{
		"question" : "what happened when gandalf faced balrog" , 
		"answer"   : "gandalf made him fall off the cliff but the balorg grabbed him by the ankle and he is 'dead'."
	}, 
	{
		"question" : "What is Saruman's Army made up of?" , 
		"answer"   : "The Uruk-Hai. The Uruk-Hai are a special"
	}, 
	{
		"question" : "What colour wizard is Gandalf?" , 
		"answer"   : "Grey. Gandalf The Grey is the second most powerful wizard in Middle Earth"
	}, 
	{
		"question" : "how many ring wrath went to the shire" , 
		"answer"   : "9"
	}, 
	{
		"question" : "How does Gandalf get to Rivendell from the top of the tower of Isengard?" , 
		"answer"   : "On the back of a giant eagle. It doesn't exactly explain it in the movie"
	}, 
	{
		"question" : "what happened on the way to the bridge of khazad-dum" , 
		"answer"   : "bunch of orcs surrounded but all ran away when they see the shadow and fire (balrog name of shawdow and fire)"
	}, 
	{
		"question" : "what happened when Gimli tried to destroy the ring with his axe" , 
		"answer"   : "the axe breaks into peices gimli gets thrown across the room but frodo felt the pain"
	}, 
	{
		"question" : "Which character is the 'Lord of the Rings' in the title?" , 
		"answer"   : "Sauron. Sauron is the Dark Lord of Mordor who strives to rule all of Middle-earth."
	}, 
	{
		"question" : "in deep of the mines what place did they fiind" , 
		"answer"   : "they founded the great realm and dwarf-city of dwarrowdelf"
	}, 
	{
		"question" : "Who is taken by the Uruk Hai?" , 
		"answer"   : "Pippin and Merry. Pippin and Merry distracted the Uruk Hai so Frodo could escape. They are later caught by the Uruk Hai."
	}, 
	{
		"question" : "what happens when gandalf puts the ring in his fire" , 
		"answer"   : "nothing until it words appeared in language Mordor on frodos hand"
	}, 
	{
		"question" : "what happened after peppi saw a skeleton" , 
		"answer"   : "the skeleton broke that made a really loud echo noise and made a loud echo noise that attracts orcs"
	}
]